1 10 20
100 200 125
201 210 89
900 1000 174
1 1 1
10 1 20
1 500 144
1 999999 525
100 512 144
664 626 145
357 668 145
706 318 171
535 123 144
365 118 144
445 432 116
49 489 144
61 789 171
955 636 179
724 25 171
684 289 145
523 272 144
890 301 179
258 945 179
84 528 144
44 507 144
130 67 122
168 875 179
618 647 132
271 24 128
249 131 128
118 281 128
812 896 179
294 367 144
30 20 112
451 499 142
905 773 179
164 331 144
369 629 142
846 184 171
924 847 179
891 614 179
231 125 128
766 932 179
401 468 134
662 111 145
133 321 131
385 444 134
327 65 144
310 229 128
321 345 144
547 854 171
633 397 142
240 35 128
537 872 179
950 711 179
982 312 179
883 734 179
696 24 145
312 50 128
908 316 179
241 852 171
511 791 171
382 946 179
254 754 171
415 399 134
34 952 179
927 435 179
633 98 144
256 917 179
674 361 145
565 232 144
30 201 125
727 459 171
864 250 171
22 16 21
304 143 128
780 345 171
695 266 145
88 541 144
574 873 179
616 898 179
366 630 142
591 799 171
522 865 171
893 630 179
937 592 179
502 368 142
186 718 171
350 436 134
323 232 131
62 564 144
9 103 119
696 925 179
992 243 179
383 796 171
364 338 126
438 785 171
264 788 171
200 192 120
680 738 171
507 884 179
350 650 145
324 448 144
333 945 179
373 964 179
102 696 145
423 257 144
588 347 142
740 916 179
306 617 144
537 236 144
477 810 171
52 518 144
298 803 171
800 772 153
981 358 179
57 914 179
200 113 125
411 348 134
793 841 135
87 312 128
300 993 179
691 96 145
351 300 144
489 552 142
988 727 179
355 247 144
480 797 171
97 574 144
80 520 144
65 955 179
311 135 128
226 255 128
454 990 179
311 502 144
823 425 171
662 485 145
238 251 110
435 764 171
85 355 144
92 466 144
90 569 144
184 981 179
559 246 144
113 836 171
418 471 129
278 619 144
920 216 179
911 877 148
356 432 134
525 193 144
555 863 171
807 8 171
549 684 145
906 633 179
909 444 179
315 116 131
195 267 128
