1 10 20
100 200 125
201 210 89
900 1000 174
1 999999 525
5993 393 238
5239 9351 262
9716 8529 260
5188 9055 262
3281 9422 262
8244 347 262
4574 1230 238
8024 3936 262
4147 307 238
1562 3412 217
5131 9090 262
5089 1695 238
9069 8204 247
174 9774 262
8039 6155 262
4671 5935 236
3176 5589 238
4065 9234 262
353 5232 238
8893 2420 262
9370 8006 260
9503 1494 262
4618 5469 210
8718 5590 262
2151 4400 238
1294 5132 238
8940 16 262
6489 3678 262
251 1037 179
9001 4233 262
868 3320 217
5392 8860 262
4074 5589 236
4944 2159 238
6275 9790 260
7841 116 262
7939 8677 252
8764 6137 262
9682 8349 260
2956 333 217
7049 3867 262
1563 6359 262
756 1565 182
2906 1819 209
7518 2624 262
5977 6240 262
7782 2858 262
4320 1781 238
3886 8869 262
8024 1353 262
2983 5913 238
1670 7885 262
5844 7885 262
5911 5369 236
9590 2801 262
9288 5966 262
6472 519 262
7 9701 262
6565 3727 262
5208 9842 262
7847 9399 260
7937 820 262
1794 4269 238
1997 1083 182
4234 2234 238
765 8560 262
722 9261 262
4097 4086 158
7509 3008 262
6744 2467 262
3393 951 217
9679 9516 198
9778 2217 262
4777 558 238
8028 2393 262
8257 6528 257
3217 9332 262
6464 5507 262
3301 47 217
8973 3302 262
8976 5756 262
7456 734 262
9087 8671 247
9378 1829 262
5356 2925 238
1342 2812 209
9334 6660 260
9284 8524 260
496 4671 238
1164 3077 217
2950 4074 238
910 2335 183
4864 4181 215
7931 5559 262
8971 5598 262
2524 2181 209
45 8870 262
382 2331 183
4367 3458 238
6781 7436 257
6504 3650 262
9376 7488 260
7981 9375 260
1025 9502 262
2171 3215 217
547 1879 182
8014 8544 234
300 2696 209
6410 9148 257
2722 1301 209
2299 7451 262
3154 8601 262
5061 2807 238
3609 310 217
401 8091 262
5800 5082 236
7980 5436 262
5746 1999 238
7991 7422 252
5694 963 238
